Mombasa,5.5
Kwale,6.2
Kilifi,8.1
Tana River,3.7
Lamu,8.6
Taita-Taveta,6.7
Garissa,6.0
Wajir,2.4
Mandera,3.2
Marsabit,3.0
Isiolo,7.5
Meru,3.5
Tharaka-Nithi,3.5
Embu,5.6
Kitui,2.7
Machakos,9.4
Makueni,2.5
Nyandarua,2.2
Nyeri,7.2
Kirinyaga,5.5
Murang'a,4.7
Kiambu,19.6
Turkana,1.9
West Pokot,0.6
Samburu,1.8
Trans-Nzoia,3.7
Uasin Gishu,8.3
Elegeyo-Marakwet,1.1
Nandi,2.4
Baringo,1.9
Laikipia,5.2
Nakuru,8.9
Narok,1.9
Kajiado,15.8
Kericho,3.0
Bomet,1.4
Kakamega,3.3
Vihiga,3.6
Bungoma,2.8
Busia,3.7
Siaya,4.0
Kisumu,11.6
Homa Bay,3.3
Migori,3.6
Kisii,3.1
Nyamira,2.0
Nairobi (County),23.5
